<svg width="100" height="22" viewBox="0 0 100 22" fill="none" xmlns="http://www.w3.org/2000/svg">
<path fill-rule="evenodd" clip-rule="evenodd" d="M81.4008 15.608L76.8247 5.125H79.0827L82.5061 13.3765L85.9521 5.125H88.2221C85.9048 10.4462 83.5754 15.7551 81.258 21.0762H79.1067L81.4008 15.608Z" fill="#141414"/>
<path fill-rule="evenodd" clip-rule="evenodd" d="M47.9083 13.8423C48.562 14.5412 49.489 14.9704 50.5825 14.9704C51.6758 14.9704 52.591 14.5534 53.2446 13.8546C53.9102 13.1435 54.2905 12.1259 54.2905 10.9856C54.2905 9.84531 53.9102 8.8277 53.2446 8.11655C52.6029 7.41773 51.6758 7.00082 50.5825 7.00082C49.489 7.00082 48.562 7.42994 47.9083 8.12882C47.2427 8.83998 46.8506 9.85758 46.8506 10.9979C46.8506 12.1136 47.2427 13.119 47.9083 13.8423ZM54.7659 15.2769C53.7201 16.3558 52.2582 17.0056 50.5825 17.0056C48.8829 17.0056 47.4211 16.3558 46.387 15.2769C45.3174 14.1856 44.6875 12.6653 44.6875 10.961C44.6875 9.25683 45.3174 7.73646 46.387 6.64528C47.4329 5.57859 48.8948 4.9165 50.5825 4.9165C52.2582 4.9165 53.7201 5.57859 54.7659 6.64528C55.8237 7.73646 56.4655 9.25683 56.4655 10.9488C56.4536 12.6653 55.8237 14.1856 54.7659 15.2769Z" fill="#141414"/>
<path fill-rule="evenodd" clip-rule="evenodd" d="M60.97 16.8216H58.9614V0.28186H61.0531V16.8216H60.97Z" fill="#141414"/>
<path fill-rule="evenodd" clip-rule="evenodd" d="M40.5279 16.8216H38.5194V2.43975H33.9199V0.28186C37.6874 0.28186 41.4431 0.28186 45.2106 0.28186V0.367686V2.43975H40.6111V16.8216H40.5279Z" fill="#141414"/>
<path fill-rule="evenodd" clip-rule="evenodd" d="M92.1321 16.8217H90.1235V5.1249H92.2275V6.28967C92.6197 5.86055 93.0713 5.54176 93.5582 5.33333C94.1879 5.06359 94.8897 4.95325 95.6028 4.95325C96.8982 4.95325 98.0035 5.43142 98.788 6.27741C99.5485 7.11117 100 8.28821 100 9.72266V16.8462H97.8962V9.82078C97.8962 8.98702 97.6347 8.26366 97.1477 7.76096C96.6841 7.28281 96.0064 6.9885 95.1745 6.9885C94.4141 6.9885 93.7844 7.19696 93.2968 7.58932C92.7978 7.98162 92.4296 8.57017 92.2154 9.30581V16.8339H92.1321V16.8217Z" fill="#141414"/>
<path fill-rule="evenodd" clip-rule="evenodd" d="M74.816 21.064H72.8075V15.7796C72.3559 16.1719 71.857 16.4539 71.322 16.6624C70.7036 16.8953 70.0385 17.0056 69.3488 17.0056C67.6851 17.0056 66.247 16.3558 65.2249 15.2891C64.179 14.1979 63.561 12.6776 63.561 10.9733C63.561 9.2691 64.179 7.74873 65.2249 6.65755C66.247 5.59086 67.6851 4.94104 69.3488 4.94104C70.0499 4.94104 70.7156 5.05139 71.322 5.28434C71.857 5.49277 72.3559 5.78703 72.8075 6.16711V5.12495H74.9114V21.0762H74.816V21.064ZM66.7699 13.8301C67.4117 14.529 68.3269 14.9581 69.3848 14.9581C70.1453 14.9581 70.823 14.7742 71.3934 14.4799C71.999 14.1611 72.4747 13.6952 72.8075 13.1557V8.79095C72.4747 8.25143 71.999 7.78555 71.3934 7.46677C70.823 7.16025 70.1453 6.98862 69.3848 6.98862C68.3269 6.98862 67.4117 7.41774 66.7699 8.11655C66.1163 8.82771 65.7241 9.8331 65.7241 10.9733C65.7241 12.1136 66.1163 13.119 66.7699 13.8301Z" fill="#141414"/>
<path fill-rule="evenodd" clip-rule="evenodd" d="M0 10.6668V16.3926C3.06631 16.3926 5.55027 13.8301 5.55027 10.6668C5.55027 7.50352 3.06631 4.94104 0 4.94104V10.6668Z" fill="#141414"/>
<path fill-rule="evenodd" clip-rule="evenodd" d="M7.36865 10.6669V19.4456C12.0751 19.4456 15.8783 15.5099 15.8783 10.6669C15.8783 5.81162 12.0632 1.88818 7.36865 1.88818V10.6669Z" fill="#141414"/>
<path fill-rule="evenodd" clip-rule="evenodd" d="M17.7085 10.6669V21.3337C23.4252 21.3337 28.0484 16.552 28.0484 10.6669C28.0484 4.76944 23.4133 0 17.7085 0V10.6669Z" fill="#141414"/>
</svg>
