<svg width="87" height="19" viewBox="0 0 87 19" fill="none" xmlns="http://www.w3.org/2000/svg">
<g opacity="0.8">
<path fill-rule="evenodd" clip-rule="evenodd" d="M70.8186 13.5789L66.8374 4.45874H68.8019L71.7802 11.6376L74.7783 4.45874H76.7532C74.737 9.08818 72.7105 13.7069 70.6944 18.3363H68.8228L70.8186 13.5789Z" fill="white"/>
<path fill-rule="evenodd" clip-rule="evenodd" d="M41.6806 12.0427C42.2492 12.6507 43.0557 13.0241 44.007 13.0241C44.9583 13.0241 45.7544 12.6614 46.3231 12.0534C46.9022 11.4347 47.2331 10.5494 47.2331 9.55732C47.2331 8.56528 46.9022 7.67997 46.3231 7.06126C45.7648 6.45329 44.9583 6.09058 44.007 6.09058C43.0557 6.09058 42.2492 6.46391 41.6806 7.07194C41.1015 7.69064 40.7603 8.57596 40.7603 9.568C40.7603 10.5387 41.1015 11.4134 41.6806 12.0427ZM47.6467 13.2907C46.7367 14.2294 45.4649 14.7948 44.007 14.7948C42.5284 14.7948 41.2566 14.2294 40.357 13.2907C39.4264 12.3413 38.8784 11.0187 38.8784 9.53596C38.8784 8.0533 39.4264 6.73058 40.357 5.78125C41.2669 4.85324 42.5388 4.27722 44.007 4.27722C45.4649 4.27722 46.7367 4.85324 47.6467 5.78125C48.5669 6.73058 49.1253 8.0533 49.1253 9.52535C49.1149 11.0187 48.5669 12.3413 47.6467 13.2907Z" fill="white"/>
<path fill-rule="evenodd" clip-rule="evenodd" d="M53.0438 14.6347H51.2964V0.245056H53.1162V14.6347H53.0438Z" fill="white"/>
<path fill-rule="evenodd" clip-rule="evenodd" d="M35.2592 14.6347H33.5118V2.12248H29.5103V0.245117C32.788 0.245117 36.0554 0.245117 39.3332 0.245117V0.319785V2.12248H35.3316V14.6347H35.2592Z" fill="white"/>
<path fill-rule="evenodd" clip-rule="evenodd" d="M80.1551 14.6345H78.4077V4.45836H80.2381V5.47171C80.5794 5.09837 80.9723 4.82103 81.3959 4.6397C81.9438 4.40502 82.5543 4.30902 83.1747 4.30902C84.3017 4.30902 85.2633 4.72503 85.9458 5.46104C86.6074 6.18642 87.0003 7.21043 87.0003 8.45841V14.6559H85.1699V8.54378C85.1699 7.8184 84.9424 7.18908 84.5187 6.75173C84.1154 6.33574 83.5258 6.07969 82.8021 6.07969C82.1405 6.07969 81.5926 6.26105 81.1684 6.60241C80.7343 6.94371 80.414 7.45575 80.2277 8.09575V14.6452H80.1551V14.6345Z" fill="white"/>
<path fill-rule="evenodd" clip-rule="evenodd" d="M65.0897 18.3253H63.3423V13.7279C62.9494 14.0692 62.5153 14.3145 62.0499 14.4959C61.5119 14.6985 60.9333 14.7945 60.3332 14.7945C58.8858 14.7945 57.6347 14.2292 56.7454 13.3012C55.8355 12.3518 55.2979 11.0291 55.2979 9.54642C55.2979 8.06375 55.8355 6.74103 56.7454 5.7917C57.6347 4.86368 58.8858 4.29834 60.3332 4.29834C60.9431 4.29834 61.5223 4.39434 62.0499 4.59701C62.5153 4.77835 62.9494 5.03435 63.3423 5.36502V4.45834H65.1727V18.336H65.0897V18.3253ZM58.0896 12.0318C58.6479 12.6398 59.4441 13.0132 60.3645 13.0132C61.0261 13.0132 61.6158 12.8532 62.112 12.5972C62.6389 12.3198 63.0527 11.9145 63.3423 11.4451V7.64776C63.0527 7.17838 62.6389 6.77307 62.112 6.49572C61.6158 6.22905 61.0261 6.07973 60.3645 6.07973C59.4441 6.07973 58.6479 6.45307 58.0896 7.06103C57.5209 7.67974 57.1797 8.55443 57.1797 9.54642C57.1797 10.5385 57.5209 11.4132 58.0896 12.0318Z" fill="white"/>
<path fill-rule="evenodd" clip-rule="evenodd" d="M0 9.2803V14.2617C2.66769 14.2617 4.82873 12.0323 4.82873 9.2803C4.82873 6.52825 2.66769 4.29889 0 4.29889V9.2803Z" fill="white"/>
<path fill-rule="evenodd" clip-rule="evenodd" d="M6.41064 9.28004V16.9175C10.5053 16.9175 13.814 13.4935 13.814 9.28004C13.814 5.05597 10.4949 1.64258 6.41064 1.64258V9.28004Z" fill="white"/>
<path fill-rule="evenodd" clip-rule="evenodd" d="M15.4062 9.28017V18.5603C20.3797 18.5603 24.4019 14.4003 24.4019 9.28017C24.4019 4.14941 20.3694 0 15.4062 0V9.28017Z" fill="white"/>
</g>
</svg>
