<svg width="67" height="84" viewBox="0 0 67 84" fill="none" xmlns="http://www.w3.org/2000/svg">
<path d="M66.3873 41.8454L0.12207 83.3183L0.122074 0.372437L66.3873 41.8454Z" fill="#E5E5E5" fill-opacity="0.9"/>
</svg>
